INDEX VERSION 1.131+D:\Documents7\IPL\SD2\Algo\.metadata\.plugins\org.eclipse.jdt.core
1741647643.index
1542774334.index
561689436.index
858989570.index
615226062.index
2538946849.index
951301356.index
3438186169.index
3166927587.index
394208321.index
2609714019.index
711050520.index
3993276655.index
686889833.index
4159017284.index
3839578677.index
2973695523.index
2948684168.index
3581737588.index
2200875372.index
3720716507.index
3450831843.index
701696521.index
1148937498.index
